data/sim_workspaces/ws_af79d93d5d/design.vcd
$date
	Wed Jul  1 07:57:44 2026
$end
$version
	Icarus Verilog
$end
$timescale
	1s
$end
$scope module cgra_top_tb $end
$var wire 16 ! io_in [15:0] $end
$var wire 16 " io_out [15:0] $end
$var wire 1 # done $end
$var wire 32 $ dmem_rd_data [31:0] $end
$var reg 1 % cfg_data $end
$var reg 1 & cfg_en $end
$var reg 32 ' cfg_word_0 [31:0] $end
$var reg 1 ( clk $end
$var reg 5 ) dmem_rd_addr [4:0] $end
$var reg 5 * dmem_wr_addr [4:0] $end
$var reg 32 + dmem_wr_data [31:0] $end
$var reg 1 , dmem_wr_en $end
$var reg 5 - exec_len [4:0] $end
$var reg 16 . expected_io_out [15:0] $end
$var reg 16 / io_in_val [15:0] $end
$var reg 1 0 rst_n $end
$var reg 1 1 start $end
$var integer 32 2 cfg_total [31:0] $end
$var integer 32 3 errors [31:0] $end
$var integer 32 4 i [31:0] $end
$scope module dut $end
$var wire 1 % cfg_data $end
$var wire 1 & cfg_en $end
$var wire 1 ( clk $end
$var wire 5 5 dmem_rd_addr [4:0] $end
$var wire 5 6 dmem_wr_addr [4:0] $end
$var wire 32 7 dmem_wr_data [31:0] $end
$var wire 1 , dmem_wr_en $end
$var wire 5 8 exec_len [4:0] $end
$var wire 16 9 io_in [15:0] $end
$var wire 16 : io_out [15:0] $end
$var wire 1 0 rst_n $end
$var wire 1 ; shift_en $end
$var wire 1 1 start $end
$var wire 1 < exec_en $end
$var wire 1 # done $end
$var wire 32 = dmem_rd_data [31:0] $end
$var wire 4 > dmem_byte_en [3:0] $end
$var wire 1 ? cfg_shift_en $end
$var wire 5 @ cfg_addr [4:0] $end
$scope begin cfg_mem_gen[0] $end
$scope module u_cfg $end
$var wire 32 A cfg_out [31:0] $end
$var wire 1 ( clk $end
$var wire 1 0 rst_n $end
$var wire 1 ; shift_en $end
$var wire 1 % shift_in $end
$var wire 1 < exec_en $end
$var wire 5 B cfg_addr [4:0] $end
$var reg 5 C bit_cnt [4:0] $end
$var reg 32 D shift_reg [31:0] $end
$var reg 5 E wr_ptr [4:0] $end
$var integer 32 F ci [31:0] $end
$upscope $end
$upscope $end
$scope begin cfg_mem_gen[1] $end
$scope module u_cfg $end
$var wire 32 G cfg_out [31:0] $end
$var wire 1 ( clk $end
$var wire 1 0 rst_n $end
$var wire 1 ; shift_en $end
$var wire 1 % shift_in $end
$var wire 1 < exec_en $end
$var wire 5 H cfg_addr [4:0] $end
$var reg 5 I bit_cnt [4:0] $end
$var reg 32 J shift_reg [31:0] $end
$var reg 5 K wr_ptr [4:0] $end
$var integer 32 L ci [31:0] $end
$upscope $end
$upscope $end
$scope begin cfg_mem_gen[2] $end
$scope module u_cfg $end
$var wire 32 M cfg_out [31:0] $end
$var wire 1 ( clk $end
$var wire 1 0 rst_n $end
$var wire 1 ; shift_en $end
$var wire 1 % shift_in $end
$var wire 1 < exec_en $end
$var wire 5 N cfg_addr [4:0] $end
$var reg 5 O bit_cnt [4:0] $end
$var reg 32 P shift_reg [31:0] $end
$var reg 5 Q wr_ptr [4:0] $end
$var integer 32 R ci [31:0] $end
$upscope $end
$upscope $end
$scope begin cfg_mem_gen[3] $end
$scope module u_cfg $end
$var wire 32 S cfg_out [31:0] $end
$var wire 1 ( clk $end
$var wire 1 0 rst_n $end
$var wire 1 ; shift_en $end
$var wire 1 % shift_in $end
$var wire 1 < exec_en $end
$var wire 5 T cfg_addr [4:0] $end
$var reg 5 U bit_cnt [4:0] $end
$var reg 32 V shift_reg [31:0] $end
$var reg 5 W wr_ptr [4:0] $end
$var integer 32 X ci [31:0] $end
$upscope $end
$upscope $end
$scope module u_array $end
$var wire 1 ( clk $end
$var wire 1 0 rst_n $end
$var wire 1 < exec_en $end
$scope begin row[0] $end
$scope begin col[0] $end
$scope module pe_inst $end
$var wire 32 Y cfg_word [31:0] $end
$var wire 1 ( clk $end
$var wire 16 Z io_in [15:0] $end
$var wire 16 [ n_out [15:0] $end
$var wire 16 \ rdata_a [15:0] $end
$var wire 16 ] rdata_b [15:0] $end
$var wire 1 0 rst_n $end
$var wire 16 ^ w_out [15:0] $end
$var wire 4 _ waddr [3:0] $end
$var wire 16 ` w_in [15:0] $end
$var wire 32 a sub_ext [31:0] $end
$var wire 16 b s_out [15:0] $end
$var wire 16 c s_in [15:0] $end
$var wire 4 d route [3:0] $end
$var wire 4 e raddr_b [3:0] $end
$var wire 4 f raddr_a [3:0] $end
$var wire 4 g opcode [3:0] $end
$var wire 16 h n_in [15:0] $end
$var wire 4 i muxb_sel [3:0] $end
$var wire 4 j muxa_sel [3:0] $end
$var wire 32 k mul_ext [31:0] $end
$var wire 16 l io_out [15:0] $end
$var wire 16 m imm [15:0] $end
$var wire 1 < exec_en $end
$var wire 16 n e_out [15:0] $end
$var wire 16 o e_in [15:0] $end
$var wire 16 p b_s [15:0] $end
$var wire 32 q add_ext [31:0] $end
$var wire 16 r a_s [15:0] $end
$var reg 32 s acc [31:0] $end
$var reg 32 t acc_next [31:0] $end
$var reg 16 u alu_result [15:0] $end
$var reg 16 v e_out_r [15:0] $end
$var reg 16 w io_out_r [15:0] $end
$var reg 16 x n_out_r [15:0] $end
$var reg 16 y op_a [15:0] $end
$var reg 16 z op_b [15:0] $end
$var reg 16 { rdata_a_r [15:0] $end
$var reg 16 | rdata_b_r [15:0] $end
$var reg 16 } s_out_r [15:0] $end
$var reg 16 ~ w_out_r [15:0] $end
$var integer 32 !" ri [31:0] $end
$scope function saturate $end
$var reg 32 "" val [31:0] $end
$upscope $end
$upscope $end
$upscope $end
$scope begin col[1] $end
$scope module pe_inst $end
$var wire 32 #" cfg_word [31:0] $end
$var wire 1 ( clk $end
$var wire 16 $" e_out [15:0] $end
$var wire 16 %" io_in [15:0] $end
$var wire 16 &" n_out [15:0] $end
$var wire 16 '" rdata_a [15:0] $end
$var wire 16 (" rdata_b [15:0] $end
$var wire 1 0 rst_n $end
$var wire 4 )" waddr [3:0] $end
$var wire 16 *" w_out [15:0] $end
$var wire 16 +" w_in [15:0] $end
$var wire 32 ," sub_ext [31:0] $end
$var wire 16 -" s_out [15:0] $end
$var wire 16 ." s_in [15:0] $end
$var wire 4 /" route [3:0] $end
$var wire 4 0" raddr_b [3:0] $end
$var wire 4 1" raddr_a [3:0] $end
$var wire 4 2" opcode [3:0] $end
$var wire 16 3" n_in [15:0] $end
$var wire 4 4" muxb_sel [3:0] $end
$var wire 4 5" muxa_sel [3:0] $end
$var wire 32 6" mul_ext [31:0] $end
$var wire 16 7" io_out [15:0] $end
$var wire 16 8" imm [15:0] $end
$var wire 1 < exec_en $end
$var wire 16 9" e_in [15:0] $end
$var wire 16 :" b_s [15:0] $end
$var wire 32 ;" add_ext [31:0] $end
$var wire 16 <" a_s [15:0] $end
$var reg 32 =" acc [31:0] $end
$var reg 32 >" acc_next [31:0] $end
$var reg 16 ?" alu_result [15:0] $end
$var reg 16 @" e_out_r [15:0] $end
$var reg 16 A" io_out_r [15:0] $end
$var reg 16 B" n_out_r [15:0] $end
$var reg 16 C" op_a [15:0] $end
$var reg 16 D" op_b [15:0] $end
$var reg 16 E" rdata_a_r [15:0] $end
$var reg 16 F" rdata_b_r [15:0] $end
$var reg 16 G" s_out_r [15:0] $end
$var reg 16 H" w_out_r [15:0] $end
$var integer 32 I" ri [31:0] $end
$scope function saturate $end
$var reg 32 J" val [31:0] $end
$upscope $end
$upscope $end
$upscope $end
$upscope $end
$scope begin row[1] $end
$scope begin col[0] $end
$scope module pe_inst $end
$var wire 32 K" cfg_word [31:0] $end
$var wire 1 ( clk $end
$var wire 16 L" io_in [15:0] $end
$var wire 16 M" rdata_a [15:0] $end
$var wire 16 N" rdata_b [15:0] $end
$var wire 1 0 rst_n $end
$var wire 16 O" s_out [15:0] $end
$var wire 16 P" w_out [15:0] $end
$var wire 4 Q" waddr [3:0] $end
$var wire 16 R" w_in [15:0] $end
$var wire 32 S" sub_ext [31:0] $end
$var wire 16 T" s_in [15:0] $end
$var wire 4 U" route [3:0] $end
$var wire 4 V" raddr_b [3:0] $end
$var wire 4 W" raddr_a [3:0] $end
$var wire 4 X" opcode [3:0] $end
$var wire 16 Y" n_out [15:0] $end
$var wire 16 Z" n_in [15:0] $end
$var wire 4 [" muxb_sel [3:0] $end
$var wire 4 \" muxa_sel [3:0] $end
$var wire 32 ]" mul_ext [31:0] $end
$var wire 16 ^" io_out [15:0] $end
$var wire 16 _" imm [15:0] $end
$var wire 1 < exec_en $end
$var wire 16 `" e_out [15:0] $end
$var wire 16 a" e_in [15:0] $end
$var wire 16 b" b_s [15:0] $end
$var wire 32 c" add_ext [31:0] $end
$var wire 16 d" a_s [15:0] $end
$var reg 32 e" acc [31:0] $end
$var reg 32 f" acc_next [31:0] $end
$var reg 16 g" alu_result [15:0] $end
$var reg 16 h" e_out_r [15:0] $end
$var reg 16 i" io_out_r [15:0] $end
$var reg 16 j" n_out_r [15:0] $end
$var reg 16 k" op_a [15:0] $end
$var reg 16 l" op_b [15:0] $end
$var reg 16 m" rdata_a_r [15:0] $end
$var reg 16 n" rdata_b_r [15:0] $end
$var reg 16 o" s_out_r [15:0] $end
$var reg 16 p" w_out_r [15:0] $end
$var integer 32 q" ri [31:0] $end
$scope function saturate $end
$var reg 32 r" val [31:0] $end
$upscope $end
$upscope $end
$upscope $end
$scope begin col[1] $end
$scope module pe_inst $end
$var wire 32 s" cfg_word [31:0] $end
$var wire 1 ( clk $end
$var wire 16 t" e_out [15:0] $end
$var wire 16 u" io_in [15:0] $end
$var wire 16 v" rdata_a [15:0] $end
$var wire 16 w" rdata_b [15:0] $end
$var wire 1 0 rst_n $end
$var wire 16 x" s_out [15:0] $end
$var wire 4 y" waddr [3:0] $end
$var wire 16 z" w_out [15:0] $end
$var wire 16 {" w_in [15:0] $end
$var wire 32 |" sub_ext [31:0] $end
$var wire 16 }" s_in [15:0] $end
$var wire 4 ~" route [3:0] $end
$var wire 4 !# raddr_b [3:0] $end
$var wire 4 "# raddr_a [3:0] $end
$var wire 4 ## opcode [3:0] $end
$var wire 16 $# n_out [15:0] $end
$var wire 16 %# n_in [15:0] $end
$var wire 4 &# muxb_sel [3:0] $end
$var wire 4 '# muxa_sel [3:0] $end
$var wire 32 (# mul_ext [31:0] $end
$var wire 16 )# io_out [15:0] $end
$var wire 16 *# imm [15:0] $end
$var wire 1 < exec_en $end
$var wire 16 +# e_in [15:0] $end
$var wire 16 ,# b_s [15:0] $end
$var wire 32 -# add_ext [31:0] $end
$var wire 16 .# a_s [15:0] $end
$var reg 32 /# acc [31:0] $end
$var reg 32 0# acc_next [31:0] $end
$var reg 16 1# alu_result [15:0] $end
$var reg 16 2# e_out_r [15:0] $end
$var reg 16 3# io_out_r [15:0] $end
$var reg 16 4# n_out_r [15:0] $end
$var reg 16 5# op_a [15:0] $end
$var reg 16 6# op_b [15:0] $end
$var reg 16 7# rdata_a_r [15:0] $end
$var reg 16 8# rdata_b_r [15:0] $end
$var reg 16 9# s_out_r [15:0] $end
$var reg 16 :# w_out_r [15:0] $end
$var integer 32 ;# ri [31:0] $end
$scope function saturate $end
$var reg 32 <# val [31:0] $end
$upscope $end
$upscope $end
$upscope $end
$upscope $end
$scope begin row_w[0] $end
$scope begin col_w[0] $end
$scope begin genblk12 $end
$upscope $end
$scope begin genblk5 $end
$upscope $end
$scope begin genblk8 $end
$upscope $end
$scope begin genblk9 $end
$upscope $end
$upscope $end
$scope begin col_w[1] $end
$scope begin genblk10 $end
$upscope $end
$scope begin genblk11 $end
$upscope $end
$scope begin genblk5 $end
$upscope $end
$scope begin genblk8 $end
$upscope $end
$upscope $end
$upscope $end
$scope begin row_w[1] $end
$scope begin col_w[0] $end
$scope begin genblk12 $end
$upscope $end
$scope begin genblk6 $end
$upscope $end
$scope begin genblk7 $end
$upscope $end
$scope begin genblk9 $end
$upscope $end
$upscope $end
$scope begin col_w[1] $end
$scope begin genblk10 $end
$upscope $end
$scope begin genblk11 $end
$upscope $end
$scope begin genblk6 $end
$upscope $end
$scope begin genblk7 $end
$upscope $end
$upscope $end
$upscope $end
$upscope $end
$scope module u_ctrl $end
$var wire 5 =# cfg_addr [4:0] $end
$var wire 1 ( clk $end
$var wire 5 ># exec_len [4:0] $end
$var wire 1 0 rst_n $end
$var wire 1 1 start $end
$var wire 1 < exec_en $end
$var wire 1 # done $end
$var wire 1 ? cfg_shift_en $end
$var reg 5 ?# addr_r [4:0] $end
$var reg 8 @# cfg_cnt [7:0] $end
$var reg 5 A# exec_cnt [4:0] $end
$var reg 2 B# state [1:0] $end
$upscope $end
$scope module u_dmem $end
$var wire 4 C# byte_en [3:0] $end
$var wire 1 ( clk $end
$var wire 5 D# rd_addr [4:0] $end
$var wire 1 0 rst_n $end
$var wire 5 E# wr_addr [4:0] $end
$var wire 32 F# wr_data [31:0] $end
$var wire 1 , wr_en $end
$var reg 32 G# rd_data [31:0] $end
$var integer 32 H# di [31:0] $end
$upscope $end
$scope module u_routers $end
$var wire 1 ( clk $end
$var wire 16 I# io_in [15:0] $end
$var wire 1 0 rst_n $end
$scope begin row_g[0] $end
$scope begin col_g[0] $end
$scope module router_inst $end
$var wire 16 J# data_l_in [15:0] $end
$var wire 3 K# sel_e_out [2:0] $end
$var wire 3 L# sel_l_out [2:0] $end
$var wire 3 M# sel_n_out [2:0] $end
$var wire 3 N# sel_s_out [2:0] $end
$var wire 3 O# sel_w_out [2:0] $end
$var wire 16 P# data_w_out [15:0] $end
$var wire 16 Q# data_w_in [15:0] $end
$var wire 16 R# data_s_out [15:0] $end
$var wire 16 S# data_s_in [15:0] $end
$var wire 16 T# data_n_out [15:0] $end
$var wire 16 U# data_n_in [15:0] $end
$var wire 16 V# data_l_out [15:0] $end
$var wire 16 W# data_e_out [15:0] $end
$var wire 16 X# data_e_in [15:0] $end
$scope function xbar $end
$var reg 3 Y# sel [2:0] $end
$upscope $end
$upscope $end
$upscope $end
$scope begin col_g[1] $end
$scope module router_inst $end
$var wire 16 Z# data_e_in [15:0] $end
$var wire 16 [# data_l_in [15:0] $end
$var wire 3 \# sel_e_out [2:0] $end
$var wire 3 ]# sel_l_out [2:0] $end
$var wire 3 ^# sel_n_out [2:0] $end
$var wire 3 _# sel_s_out [2:0] $end
$var wire 3 `# sel_w_out [2:0] $end
$var wire 16 a# data_w_out [15:0] $end
$var wire 16 b# data_w_in [15:0] $end
$var wire 16 c# data_s_out [15:0] $end
$var wire 16 d# data_s_in [15:0] $end
$var wire 16 e# data_n_out [15:0] $end
$var wire 16 f# data_n_in [15:0] $end
$var wire 16 g# data_l_out [15:0] $end
$var wire 16 h# data_e_out [15:0] $end
$scope function xbar $end
$var reg 3 i# sel [2:0] $end
$upscope $end
$upscope $end
$upscope $end
$upscope $end
$scope begin row_g[1] $end
$scope begin col_g[0] $end
$scope module router_inst $end
$var wire 16 j# data_l_in [15:0] $end
$var wire 16 k# data_s_in [15:0] $end
$var wire 3 l# sel_e_out [2:0] $end
$var wire 3 m# sel_l_out [2:0] $end
$var wire 3 n# sel_n_out [2:0] $end
$var wire 3 o# sel_s_out [2:0] $end
$var wire 3 p# sel_w_out [2:0] $end
$var wire 16 q# data_w_out [15:0] $end
$var wire 16 r# data_w_in [15:0] $end
$var wire 16 s# data_s_out [15:0] $end
$var wire 16 t# data_n_out [15:0] $end
$var wire 16 u# data_n_in [15:0] $end
$var wire 16 v# data_l_out [15:0] $end
$var wire 16 w# data_e_out [15:0] $end
$var wire 16 x# data_e_in [15:0] $end
$scope function xbar $end
$var reg 3 y# sel [2:0] $end
$upscope $end
$upscope $end
$upscope $end
$scope begin col_g[1] $end
$scope module router_inst $end
$var wire 16 z# data_e_in [15:0] $end
$var wire 16 {# data_l_in [15:0] $end
$var wire 16 |# data_s_in [15:0] $end
$var wire 3 }# sel_e_out [2:0] $end
$var wire 3 ~# sel_l_out [2:0] $end
$var wire 3 !$ sel_n_out [2:0] $end
$var wire 3 "$ sel_s_out [2:0] $end
$var wire 3 #$ sel_w_out [2:0] $end
$var wire 16 $$ data_w_out [15:0] $end
$var wire 16 %$ data_w_in [15:0] $end
$var wire 16 &$ data_s_out [15:0] $end
$var wire 16 '$ data_n_out [15:0] $end
$var wire 16 ($ data_n_in [15:0] $end
$var wire 16 )$ data_l_out [15:0] $end
$var wire 16 *$ data_e_out [15:0] $end
$scope function xbar $end
$var reg 3 +$ sel [2:0] $end
$upscope $end
$upscope $end
$upscope $end
$upscope $end
$scope begin row_w[0] $end
$scope begin col_w[0] $end
$scope begin genblk12 $end
$upscope $end
$scope begin genblk5 $end
$upscope $end
$scope begin genblk8 $end
$upscope $end
$scope begin genblk9 $end
$upscope $end
$upscope $end
$scope begin col_w[1] $end
$scope begin genblk10 $end
$upscope $end
$scope begin genblk11 $end
$upscope $end
$scope begin genblk5 $end
$upscope $end
$scope begin genblk8 $end
$upscope $end
$upscope $end
$upscope $end
$scope begin row_w[1] $end
$scope begin col_w[0] $end
$scope begin genblk12 $end
$upscope $end
$scope begin genblk6 $end
$upscope $end
$scope begin genblk7 $end
$upscope $end
$scope begin genblk9 $end
$upscope $end
$upscope $end
$scope begin col_w[1] $end
$scope begin genblk10 $end
$upscope $end
$scope begin genblk11 $end
$upscope $end
$scope begin genblk6 $end
$upscope $end
$scope begin genblk7 $end
$upscope $end
$upscope $end
$upscope $end
$upscope $end
$upscope $end
$scope task check_equal $end
$var reg 128 ,$ exp [127:0] $end
$var reg 128 -$ got [127:0] $end
$var reg 256 .$ name [255:0] $end
$upscope $end
$upscope $end
$enddefinitions $end
#0
$dumpvars
bx .$
bx -$
bx ,$
b100 +$
bx *$
bx )$
bx ($
bx '$
bx &$
bx %$
bx $$
b100 #$
b100 "$
b100 !$
b100 ~#
b100 }#
b0 |#
b0 {#
b0 z#
b100 y#
bx x#
bx w#
bx v#
bx u#
bx t#
bx s#
bz r#
bx q#
b100 p#
b100 o#
b100 n#
b100 m#
b100 l#
b0 k#
b0 j#
b100 i#
bx h#
bx g#
bz f#
bx e#
bx d#
bx c#
bx b#
bx a#
b100 `#
b100 _#
b100 ^#
b100 ]#
b100 \#
b0 [#
b0 Z#
b100 Y#
bx X#
bx W#
bx V#
bz U#
bx T#
bx S#
bx R#
bz Q#
bx P#
b100 O#
b100 N#
b100 M#
b100 L#
b100 K#
b0 J#
bz I#
b100000 H#
b0 G#
b0 F#
b0 E#
b0 D#
b0 C#
b0 B#
b0 A#
b0 @#
b0 ?#
b0 >#
b0 =#
bx <#
b10000 ;#
b0 :#
b0 9#
b0 8#
b0 7#
b0 6#
b0 5#
b0 4#
b0 3#
b0 2#
b0 1#
b0 0#
b0 /#
b0 .#
b0 -#
b0 ,#
bz +#
b0 *#
b0 )#
b0 (#
b0 '#
b0 &#
b0 %#
b0 $#
b0 ##
b0 "#
b0 !#
b0 ~"
bz }"
b0 |"
b0 {"
b0 z"
b0 y"
b0 x"
b0 w"
b0 v"
bz u"
b0 t"
b0 s"
bx r"
b10000 q"
b0 p"
b0 o"
b0 n"
b0 m"
b0 l"
b0 k"
b0 j"
b0 i"
b0 h"
b0 g"
b0 f"
b0 e"
b0 d"
b0 c"
b0 b"
b0 a"
b0 `"
b0 _"
b0 ^"
b0 ]"
b0 \"
b0 ["
b0 Z"
b0 Y"
b0 X"
b0 W"
b0 V"
b0 U"
bz T"
b0 S"
bz R"
b0 Q"
b0 P"
b0 O"
b0 N"
b0 M"
bz L"
b0 K"
bx J"
b10000 I"
b0 H"
b0 G"
b0 F"
b0 E"
bz D"
bz C"
b0 B"
b0 A"
b0 @"
bz ?"
b0 >"
b0 ="
bz <"
bx ;"
bz :"
bz 9"
b0 8"
b0 7"
bx 6"
b0 5"
b0 4"
bz 3"
b0 2"
b0 1"
b0 0"
b0 /"
b0 ."
b0 -"
bx ,"
b0 +"
b0 *"
b0 )"
b0 ("
b0 '"
b0 &"
bz %"
b0 $"
b0 #"
bx ""
b10000 !"
b0 ~
b0 }
b0 |
b0 {
bz z
bz y
b0 x
b0 w
b0 v
bz u
b0 t
b0 s
bz r
bx q
bz p
b0 o
b0 n
b0 m
b0 l
bx k
b0 j
b0 i
bz h
b0 g
b0 f
b0 e
b0 d
b0 c
b0 b
bx a
bz `
b0 _
b0 ^
b0 ]
b0 \
b0 [
bz Z
b0 Y
b100000 X
b0 W
b0 V
b0 U
b0 T
b0 S
b100000 R
b0 Q
b0 P
b0 O
b0 N
b0 M
b100000 L
b0 K
b0 J
b0 I
b0 H
b0 G
b100000 F
b0 E
b0 D
b0 C
b0 B
b0 A
b0 @
0?
b0 >
b0 =
0<
0;
b0 :
bz 9
b0 8
b0 7
b0 6
b0 5
bx 4
b0 3
b10000000 2
01
00
b10000 /
b10011 .
b0 -
0,
b0 +
b0 *
b0 )
0(
b10000000000000111010110000011 '
0&
0%
b0 $
0#
b0 "
bz !
$end
#5
b10000 ;#
b10000 q"
b10000 I"
b10000 !"
b100000 H#
b100000 X
b100000 R
b100000 L
b100000 F
1(
#10
0(
#15
b100000 F
b100000 L
b100000 R
b100000 X
b100000 H#
b10000 !"
b10000 I"
b10000 q"
b10000 ;#
1(
#20
0(
#25
b10000 ;#
b10000 q"
b10000 I"
b10000 !"
b100000 H#
b100000 X
b100000 R
b100000 L
b100000 F
1(
#30
10
0(
#35
1(
#40
0(
#45
1(
#50
b11011110101011011011111011101111 +
b11011110101011011011111011101111 7
b11011110101011011011111011101111 F#
b101 *
b101 6
b101 E#
b1111 >
b1111 C#
1,
0(
#55
1(
#60
b101 )
b101 5
b101 D#
b0 +
b0 7
b0 F#
b0 *
b0 6
b0 E#
b0 >
b0 C#
0,
0(
#65
b11011110101011011011111011101111 $
b11011110101011011011111011101111 =
b11011110101011011011111011101111 G#
1(
#70
0(
#75
1(
#80
b100000 q
b0 a
b10000 u
b100000 ;"
b0 ,"
b10000 ?"
b100000000 k
b10000 p
b10000 z
b10000 r
b10000 y
b100000000 6"
b10000 :"
b10000 D"
b10000 <"
b10000 C"
b10000 h
b10000 `
b10000 Z
b10000 9"
b10000 3"
b10000 %"
b10000 T"
b10000 R"
b10000 L"
b10000 +#
b10000 }"
b10000 u"
b10000 U#
b10000 Q#
b10000 f#
b10000 r#
b10000 !
b10000 9
b10000 I#
b1100100011011010110010101101101001000000111001001100101011000010110010001100010011000010110001101101011001000000110000101100100011001000111001000110101 .$
b11011110101011011011111011101111 ,$
b11011110101011011011111011101111 -$
0(
#85
1(
#90
1%
b0 4
1;
1&
0(
#95
b1 C
b10000000000000000000000000000000 D
b1 I
b10000000000000000000000000000000 J
b1 O
b10000000000000000000000000000000 P
b1 U
b10000000000000000000000000000000 V
1(
#100
b1 4
0(
#105
b10 U
b11000000000000000000000000000000 V
b10 O
b11000000000000000000000000000000 P
b10 I
b11000000000000000000000000000000 J
b10 C
b11000000000000000000000000000000 D
1(
#110
0%
b10 4
0(
#115
b11 C
b1100000000000000000000000000000 D
b11 I
b1100000000000000000000000000000 J
b11 O
b1100000000000000000000000000000 P
b11 U
b1100000000000000000000000000000 V
1(
#120
b11 4
0(
#125
b100 U
b110000000000000000000000000000 V
b100 O
b110000000000000000000000000000 P
b100 I
b110000000000000000000000000000 J
b100 C
b110000000000000000000000000000 D
1(
#130
b100 4
0(
#135
b101 C
b11000000000000000000000000000 D
b101 I
b11000000000000000000000000000 J
b101 O
b11000000000000000000000000000 P
b101 U
b11000000000000000000000000000 V
1(
#140
b101 4
0(
#145
b110 U
b1100000000000000000000000000 V
b110 O
b1100000000000000000000000000 P
b110 I
b1100000000000000000000000000 J
b110 C
b1100000000000000000000000000 D
1(
#150
b110 4
0(
#155
b111 C
b110000000000000000000000000 D
b111 I
b110000000000000000000000000 J
b111 O
b110000000000000000000000000 P
b111 U
b110000000000000000000000000 V
1(
#160
1%
b111 4
0(
#165
b1000 U
b10000011000000000000000000000000 V
b1000 O
b10000011000000000000000000000000 P
b1000 I
b10000011000000000000000000000000 J
b1000 C
b10000011000000000000000000000000 D
1(
#170
b1000 4
0(
#175
b1001 C
b11000001100000000000000000000000 D
b1001 I
b11000001100000000000000000000000 J
b1001 O
b11000001100000000000000000000000 P
b1001 U
b11000001100000000000000000000000 V
1(
#180
0%
b1001 4
0(
#185
b1010 U
b1100000110000000000000000000000 V
b1010 O
b1100000110000000000000000000000 P
b1010 I
b1100000110000000000000000000000 J
b1010 C
b1100000110000000000000000000000 D
1(
#190
1%
b1010 4
0(
#195
b1011 C
b10110000011000000000000000000000 D
b1011 I
b10110000011000000000000000000000 J
b1011 O
b10110000011000000000000000000000 P
b1011 U
b10110000011000000000000000000000 V
1(
#200
0%
b1011 4
0(
#205
b1100 U
b1011000001100000000000000000000 V
b1100 O
b1011000001100000000000000000000 P
b1100 I
b1011000001100000000000000000000 J
b1100 C
b1011000001100000000000000000000 D
1(
#210
1%
b1100 4
0(
#215
b1101 C
b10101100000110000000000000000000 D
b1101 I
b10101100000110000000000000000000 J
b1101 O
b10101100000110000000000000000000 P
b1101 U
b10101100000110000000000000000000 V
1(
#220
b1101 4
0(
#225
b1110 U
b11010110000011000000000000000000 V
b1110 O
b11010110000011000000000000000000 P
b1110 I
b11010110000011000000000000000000 J
b1110 C
b11010110000011000000000000000000 D
1(
#230
b1110 4
0(
#235
b1111 C
b11101011000001100000000000000000 D
b1111 I
b11101011000001100000000000000000 J
b1111 O
b11101011000001100000000000000000 P
b1111 U
b11101011000001100000000000000000 V
1(
#240
0%
b1111 4
0(
#245
b10000 U
b1110101100000110000000000000000 V
b10000 O
b1110101100000110000000000000000 P
b10000 I
b1110101100000110000000000000000 J
b10000 C
b1110101100000110000000000000000 D
1(
#250
b10000 4
0(
#255
b10001 C
b111010110000011000000000000000 D
b10001 I
b111010110000011000000000000000 J
b10001 O
b111010110000011000000000000000 P
b10001 U
b111010110000011000000000000000 V
1(
#260
b10001 4
0(
#265
b10010 U
b11101011000001100000000000000 V
b10010 O
b11101011000001100000000000000 P
b10010 I
b11101011000001100000000000000 J
b10010 C
b11101011000001100000000000000 D
1(
#270
b10010 4
0(
#275
b10011 C
b1110101100000110000000000000 D
b10011 I
b1110101100000110000000000000 J
b10011 O
b1110101100000110000000000000 P
b10011 U
b1110101100000110000000000000 V
1(
#280
b10011 4
0(
#285
b10100 U
b111010110000011000000000000 V
b10100 O
b111010110000011000000000000 P
b10100 I
b111010110000011000000000000 J
b10100 C
b111010110000011000000000000 D
1(
#290
b10100 4
0(
#295
b10101 C
b11101011000001100000000000 D
b10101 I
b11101011000001100000000000 J
b10101 O
b11101011000001100000000000 P
b10101 U
b11101011000001100000000000 V
1(
#300
b10101 4
0(
#305
b10110 U
b1110101100000110000000000 V
b10110 O
b1110101100000110000000000 P
b10110 I
b1110101100000110000000000 J
b10110 C
b1110101100000110000000000 D
1(
#310
b10110 4
0(
#315
b10111 C
b111010110000011000000000 D
b10111 I
b111010110000011000000000 J
b10111 O
b111010110000011000000000 P
b10111 U
b111010110000011000000000 V
1(
#320
b10111 4
0(
#325
b11000 U
b11101011000001100000000 V
b11000 O
b11101011000001100000000 P
b11000 I
b11101011000001100000000 J
b11000 C
b11101011000001100000000 D
1(
#330
b11000 4
0(
#335
b11001 C
b1110101100000110000000 D
b11001 I
b1110101100000110000000 J
b11001 O
b1110101100000110000000 P
b11001 U
b1110101100000110000000 V
1(
#340
b11001 4
0(
#345
b11010 U
b111010110000011000000 V
b11010 O
b111010110000011000000 P
b11010 I
b111010110000011000000 J
b11010 C
b111010110000011000000 D
1(
#350
b11010 4
0(
#355
b11011 C
b11101011000001100000 D
b11011 I
b11101011000001100000 J
b11011 O
b11101011000001100000 P
b11011 U
b11101011000001100000 V
1(
#360
b11011 4
0(
#365
b11100 U
b1110101100000110000 V
b11100 O
b1110101100000110000 P
b11100 I
b1110101100000110000 J
b11100 C
b1110101100000110000 D
1(
#370
1%
b11100 4
0(
#375
b11101 C
b10000000000000111010110000011000 D
b11101 I
b10000000000000111010110000011000 J
b11101 O
b10000000000000111010110000011000 P
b11101 U
b10000000000000111010110000011000 V
1(
#380
0%
b11101 4
0(
#385
b11110 U
b1000000000000011101011000001100 V
b11110 O
b1000000000000011101011000001100 P
b11110 I
b1000000000000011101011000001100 J
b11110 C
b1000000000000011101011000001100 D
1(
#390
b11110 4
0(
#395
b11111 C
b100000000000001110101100000110 D
b11111 I
b100000000000001110101100000110 J
b11111 O
b100000000000001110101100000110 P
b11111 U
b100000000000001110101100000110 V
1(
#400
b11111 4
0(
#405
b10011 1#
b10011 <#
b110000 (#
b11 ,#
b11 6#
b10011 -#
b1101 |"
b10000 .#
b10000 5#
b10011 g"
b10011 r"
b110000 ]"
b11 b"
b11 l"
b10011 c"
b1101 S"
b10000 d"
b10000 k"
b10011 ?"
b10011 J"
b110000 6"
b10011 ;"
b1101 ,"
b11 :"
b11 D"
b10011 u
b10011 ""
b110000 k
b10011 q
b1101 a
b11 p
b11 z
b1 ##
b111 '#
b101 &#
b1000 ~"
b11 *#
b1 X"
b111 \"
b101 ["
b1000 U"
b11 _"
b1 2"
b111 5"
b101 4"
b1000 /"
b11 8"
b1 g
b111 j
b101 i
b1000 d
b11 m
b0 U
b1 W
b10000000000000111010110000011 s"
b10000000000000111010110000011 S
b10000000000000111010110000011 V
b0 O
b1 Q
b10000000000000111010110000011 K"
b10000000000000111010110000011 M
b10000000000000111010110000011 P
b0 I
b1 K
b10000000000000111010110000011 #"
b10000000000000111010110000011 G
b10000000000000111010110000011 J
b0 C
b1 E
b10000000000000111010110000011 Y
b10000000000000111010110000011 A
b10000000000000111010110000011 D
1(
#410
x%
b100000 4
0(
