data/ip_library/mem_fifo_sync/tb/design.vcd
$date
	Mon Jun 22 16:02:54 2026
$end
$version
	Icarus Verilog
$end
$timescale
	1ps
$end
$scope module fifo_sync_tb $end
$var wire 1 ! full $end
$var wire 1 " empty $end
$var wire 8 # dout [7:0] $end
$var reg 1 $ clk $end
$var reg 8 % din [7:0] $end
$var reg 1 & rd $end
$var reg 1 ' rst $end
$var reg 1 ( wr $end
$var integer 32 ) errors [31:0] $end
$var integer 32 * i [31:0] $end
$scope module dut $end
$var wire 1 $ clk $end
$var wire 8 + din [7:0] $end
$var wire 1 ! full $end
$var wire 1 & rd_en $end
$var wire 1 ' rst $end
$var wire 1 ( wr_en $end
$var wire 3 , wa [2:0] $end
$var wire 3 - ra [2:0] $end
$var wire 1 " empty $end
$var reg 8 . dout [7:0] $end
$var reg 4 / rptr [3:0] $end
$var reg 4 0 wptr [3:0] $end
$upscope $end
$upscope $end
$enddefinitions $end
#0
$dumpvars
bx 0
bx /
bx .
bx -
bx ,
b0 +
bx *
b0 )
0(
1'
0&
b0 %
0$
bx #
x"
x!
$end
#5000
0!
b0 -
b0 ,
1"
b0 /
b0 0
1$
#10000
b0 *
0'
0$
#15000
1$
#20000
b1 *
b10 %
b10 +
1(
0$
#25000
b1 ,
0"
b1 0
1$
#30000
b10 *
b1001 %
b1001 +
0$
#35000
b10 ,
b10 0
1$
#40000
b11 *
b10000 %
b10000 +
0$
#45000
b11 ,
b11 0
1$
#50000
b100 *
b10111 %
b10111 +
0$
#55000
b100 ,
b100 0
1$
#60000
b101 *
b11110 %
b11110 +
0$
#65000
b101 ,
b101 0
1$
#70000
b110 *
b100101 %
b100101 +
0$
#75000
b110 ,
b110 0
1$
#80000
b0 *
0(
0$
#85000
1$
#90000
1&
0$
#95000
b1 -
b1 /
b10 #
b10 .
1$
#96000
b1 *
#100000
0$
#105000
b10 -
b10 /
b1001 #
b1001 .
1$
#106000
b10 *
#110000
0$
#115000
b11 -
b11 /
b10000 #
b10000 .
1$
#116000
b11 *
#120000
0$
#125000
b100 -
b100 /
b10111 #
b10111 .
1$
#126000
b100 *
#130000
0$
#135000
b101 -
b101 /
b11110 #
b11110 .
1$
#136000
b101 *
#140000
0$
#145000
b110 -
1"
b110 /
b100101 #
b100101 .
1$
#146000
b110 *
#150000
0&
0$
